PROJECT|SHOT|VERSION|STATUS|FINISH_DATE|INTERNAL_BID|CREATED_DATE
the hobbit|01|64|scheduled|2010-05-15|45.00|2010-04-01 13:35
lotr|03|16|finished|2001-05-15|15.00|2001-04-01 06:47
king kong|42|128|scheduled|2006-07-22|45.00|2006-08-04 07:22
the hobbit|40|32|finished|2010-05-15|22.80|2010-03-22 01:10
king kong|42|128|not required|2006-07-22|30.00|2006-10-15 14:nn
